ODIS Retrospectivo Data Wrangling
…
height_records <- height %>% pull(record_id)

Weight

Removing duplicated values

weight %>% 
  count(record_id, date_weight) %>% 
  filter(n > 1)

# A tibble: 321 × 3
   record_id date_weight             n
   <chr>     <dttm>              <int>
 1 0001773I  2022-02-12 00:00:00     2
 2 0002833A  2023-08-08 00:00:00     2
 3 0003157C  2023-04-11 00:00:00     2
 4 0009628E  2020-02-05 00:00:00     2
 5 0010081B  2017-09-27 00:00:00     2
 6 0021256I  2018-05-08 00:00:00     2
 7 0021256I  2018-09-25 00:00:00     2
 8 0025125C  2017-05-08 00:00:00     2
 9 0025125C  2023-07-31 00:00:00     2
10 0040586C  2023-04-25 00:00:00     2
# ℹ 311 more rows
…
`summarise()` has grouped output by 'record_id'. You can override using the
`.groups` argument.

# A tibble: 321 × 6
   record_id date_weight             n   min   max    sd
   <chr>     <dttm>              <int> <dbl> <dbl> <dbl>
 1 1086684E  2016-07-21 00:00:00     5   16   116  44.7 
 2 0714899K  2019-05-20 00:00:00     2  117.  152  24.5 
 3 0590896K  2020-01-08 00:00:00     2  156   189  23.3 
 4 0460577I  2020-02-20 00:00:00     2  100.  122. 15.4 
 5 1436536B  2017-06-26 00:00:00     7   90   109   7.18
 6 0244504F  2021-06-24 00:00:00     3   65    79   7   
 7 0048754J  2021-10-05 00:00:00     3  170   182   6.93
 8 1271010E  2018-04-02 00:00:00     2  107   116.  6.72
 9 0177690H  2020-01-24 00:00:00     2  117   125   5.66
10 1436536B  2017-06-19 00:00:00     3  111   119   4.62
# ℹ 311 more rows
…
[1] 1214

This is a very large proportion: 1214 out of 5202, or 0.2333718% of consultations do not have a recorded weight.

Heights

Let’s start by checking the variation in heights to determine if it would be ok to use a patient’s mean or median height. This would avoid having to to fuzzy joins or left joins for each date + height pairs. But before we do that, let’s check if there are records with multiple measurements on the same day.

height %>% 
  count(record_id, date_height) %>% 
  filter(n > 1) %>% 
  arrange(desc(n))

# A tibble: 68 × 3
   record_id date_height             n
   <chr>     <dttm>              <int>
 1 0171409I  2017-11-16 00:00:00     3
 2 0910690A  2018-01-23 00:00:00     3
 3 0002833A  2023-08-08 00:00:00     2
 4 0003157C  2023-04-11 00:00:00     2
 5 0021256I  2018-05-08 00:00:00     2
 6 0025125C  2017-05-08 00:00:00     2
 7 0048754J  2021-10-05 00:00:00     2
 8 0071126C  2017-02-02 00:00:00     2
 9 0152096H  2018-03-20 00:00:00     2
10 0192240H  2017-02-13 00:00:00     2
# ℹ 58 more rows
…
`summarise()` has grouped output by 'record_id'. You can override using the
`.groups` argument.

# A tibble: 68 × 6
   record_id date_height             n   min   max     sd
   <chr>     <dttm>              <int> <dbl> <dbl>  <dbl>
 1 0363003B  2018-03-02 00:00:00     2  1.45  1.68 0.163 
 2 0171409I  2017-11-16 00:00:00     3  1.47  1.68 0.121 
 3 0762275C  2018-04-03 00:00:00     2  1.63  1.73 0.0707
 4 0426632E  2018-06-05 00:00:00     2  1.8   1.89 0.0636
 5 1435226K  2019-03-26 00:00:00     2  1.8   1.89 0.0636
 6 0472263A  2019-07-25 00:00:00     2  1.4   1.47 0.0495
 7 0460577I  2020-02-20 00:00:00     2  1.62  1.68 0.0460
 8 0611522G  2019-04-09 00:00:00     2  1.6   1.66 0.0424
 9 0595735I  2019-05-23 00:00:00     2  1.68  1.73 0.0354
10 0507220D  2018-09-18 00:00:00     2  1.64  1.68 0.0283
# ℹ 58 more rows
…
heights_sd <- height %>% 
  group_by(record_id) %>% 
  summarise(
    n = n(),
    min = min(height_m),
    max = max(height_m),
    sd = sd(height_m)
  ) %>% 
  arrange(desc(sd)) %>% 
  ungroup()

heights_sd

# A tibble: 780 × 5
   record_id     n   min   max    sd
   <chr>     <int> <dbl> <dbl> <dbl>
 1 0590896K      7 1.03   1.68 0.294
 2 0167287D     13 0.825  1.63 0.292
 3 0363407D     30 0.2    1.66 0.265
 4 0152096H     14 1      1.64 0.171
 5 0742230J      4 1.35   1.68 0.165
 6 0863917A     17 1.27   1.71 0.159
 7 0871705G      8 1.16   1.65 0.157
 8 1284970G      9 0.865  1.28 0.129
 9 0581757E      6 1.63   1.89 0.106
10 1075446A      7 1.61   1.89 0.102
# ℹ 770 more rows

Let’s check patient’s ages at the beginning of follow-up:

heights_sd <- left_join(
  x = heights_sd,
  y = consultas %>% 
    filter(index == 1) %>% 
    select(record_id, age),
  by = "record_id"
)

heights_sd

# A tibble: 780 × 6
   record_id     n   min   max    sd   age
   <chr>     <int> <dbl> <dbl> <dbl> <dbl>
 1 0590896K      7 1.03   1.68 0.294 45.1 
 2 0167287D     13 0.825  1.63 0.292 50.2 
 3 0363407D     30 0.2    1.66 0.265 42.0 
 4 0152096H     14 1      1.64 0.171 49.4 
 5 0742230J      4 1.35   1.68 0.165 51.2 
 6 0863917A     17 1.27   1.71 0.159  7.59
 7 0871705G      8 1.16   1.65 0.157 52.2 
 8 1284970G      9 0.865  1.28 0.129  2.27
 9 0581757E      6 1.63   1.89 0.106 39.7 
10 1075446A      7 1.61   1.89 0.102 60.4 
# ℹ 770 more rows

The patients with the most concerning height variations were not adolescents during the beginning of the follow-up. So, we assume the height variations are not due to growth, but errors in data collection. Since they have multiple measurements, and to avoid severe errors in magnitude if we were to use the mean, we’ll use the median height value for each patient.

patient_heights <- height %>% 
  group_by(record_id) %>% 
  summarise(
    height_m = median(height_m)
  ) %>% 
  ungroup()

patient_heights

# A tibble: 780 × 2
   record_id height_m
   <chr>        <dbl>
 1 0002833A      1.45
 2 0003157C      1.45
 3 0003398D      1.59
 4 0003463C      1.76
 5 0004450D      1.68
 6 0005135A      1.47
 7 0009628E      1.56
 8 0009879C      1.65
 9 0010017F      1.63
10 0010081B      1.53
# ℹ 770 more rows

Ok, now let’s bind the height of patients that did not have any height measurements recorded, and for whom a height measurement was collected directly from the electronic medical record (EMR).

patient_heights <- bind_rows(patient_heights, alturas_faltantes)
patient_heights

# A tibble: 856 × 2
   record_id height_m
   <chr>        <dbl>
 1 0002833A      1.45
 2 0003157C      1.45
 3 0003398D      1.59
 4 0003463C      1.76
 5 0004450D      1.68
 6 0005135A      1.47
 7 0009628E      1.56
 8 0009879C      1.65
 9 0010017F      1.63
10 0010081B      1.53
# ℹ 846 more rows
…
