ODIS Retrospectivo Data Analysis
…
reganho50_primeiro

# A tibble: 221 × 5
   record_id t0_date             t50_date   t50_event time_to_50_months
   <chr>     <dttm>              <date>     <lgl>                 <dbl>
 1 0003157C  2018-08-14 00:00:00 2022-11-01 TRUE                   50.6
 2 0003463C  2021-02-23 00:00:00 2022-08-02 TRUE                   17.2
 3 0019782E  2022-11-22 00:00:00 NA         FALSE                  NA  
 4 0025125C  2017-05-16 00:00:00 NA         FALSE                  NA  
 5 0035667G  2022-12-06 00:00:00 NA         FALSE                  NA  
 6 0038995F  2017-08-22 00:00:00 NA         FALSE                  NA  
 7 0040586C  2019-01-15 00:00:00 NA         FALSE                  NA  
 8 0042023A  2019-11-05 00:00:00 NA         FALSE                  NA  
 9 0045145G  2018-10-30 00:00:00 NA         FALSE                  NA  
10 0061300B  2019-09-03 00:00:00 NA         FALSE                  NA  
# ℹ 211 more rows
…
